[[[0.8004779965196209], [-1.5306022851272856]], [[-0.1395602254372708], [-1.7692288515271704]]]
[[2.8721673000921224, 1.7831010200404593], [0.4547454922392497, 0.7186378661118182]]
{-1: {1: 'LinearCond([1.0, 0.0, -0.5040801941123131])', 0: 'LinearCond([-1.0, 0.0, 0.5040802061056966])'}, 1: {0: 'LinearCond([0.0, 1.0, -3.042216886241916])', -2: 'LinearCond([1.0, 0.0, -6.839397513075873])'}, 0: {1: 'LinearCond([-1.0, 0.0, 2.378312456717072])', -2: 'LinearCond([1.0, 0.0, -6.7936939826218286])'}}
{-1: {1: '0.56845831299837', 0: '0.5684583130894835'}, 1: {0: '343.7917307490037', -2: '4.48380695971346'}, 0: {1: '374.55731573867706', -2: '30.126208871730103'}}
