[[[4.21128483608899], [-4.802925940205232]], [[-2.973195693867612], [-3.870869758917734]]]
[[0.27128482840744256, 0.03148675106968355], [0.32545631130567554, 0.37871371946936416]]
{-1: {1: 'LinearCond([0.0, 0.0, 1.0, 0.0, 0.0, -10.237436530553754])', 0: 'LinearCond([0.0, 1.0, 0.0, 0.0, 0.0, -9.762563454596203])'}, 1: {0: 'LinearCond([0.0, 0.0, 0.0, 0.0, -1.0, 3.993999316796109])', -2: 'LinearCond([1.0, 0.0, 0.0, 0.0, 0.0, -8.601657662009048])'}, 0: {1: 'LinearCond([0.0, 0.0, 0.0, -1.0, 0.0, 5.708977801556152])', -2: 'LinearCond([1.0, 0.0, 0.0, 0.0, 0.0, -8.597194626766631])'}}
{-1: {1: '0.1905095006389574', 0: '0.19050950068968517'}, 1: {0: '174.44808840458734', -2: '0.003225889482477572'}, 0: {1: '200.37802990809888', -2: '30.252428426445427'}}
