[[[1.7135147703061513], [3.224589746916828]], [[2.6494174079369066], [-3.766238218473363]], [[-0.3924151567133251], [-4.6950151780087355]]]
[[3.1171193560258237, 1.0021206734973738], [1.7330460025788528, 1.0863107498025038], [0.10687146899076945, 0.08025505505931645]]
{-1: {1: 'LinearCond([1.0, 0.0, 0.0, 0.0, 0.0, -1.3576158494885346])', 0: 'LinearCond([0.0, 0.0, 0.0, -1.0, 0.0, 3.7698513594366103])', 2: 'LinearCond([0.0, 1.0, 0.0, 0.0, 0.0, -5.398325209097207])'}, 2: {-2: 'LinearCond([0.0, 0.0, -1.0, 0.0, 0.0, 5.621815365987741])', 0: 'LinearCond([0.0, 0.0, 0.0, 0.0, -1.0, 0.3156402280503041])', 1: 'LinearCond([-1.0, 0.0, 0.0, 0.0, 0.0, -4.582682004552119])'}, 0: {2: 'LinearCond([0.0, 0.0, 0.0, -1.0, 0.0, 0.4801051187278509])', -2: 'LinearCond([0.0, 0.0, 0.0, 1.0, 0.0, -5.461093272864492])', 1: 'LinearCond([0.0, 0.0, 1.0, 0.0, 0.0, -10.050938795820457])'}, 1: {-2: 'LinearCond([0.0, 0.0, -1.0, 0.0, 0.0, 7.932437473208971])', 2: 'LinearCond([1.0, 0.0, 0.0, 0.0, 0.0, -0.9140172630111096])', 0: 'LinearCond([0.0, 0.0, 0.0, 1.0, 0.0, -2.587781689787139])'}}
{-1: {1: '2.1728952216756177e-07', 0: '4.6185435350104877e-07', 2: '2.0973216669507638e-08'}, 2: {-2: '5.814889149254808e-06', 0: '11.036354875993775', 1: '3.0900906410341085'}, 0: {2: '95.47893401525278', -2: '45.17380055029721', 1: '82.96114050360067'}, 1: {-2: '27.697008232053125', 2: '25.544579574176034', 0: '43.50760821346075'}}
