[[[2.0942705049601593], [3.5266884861789047]], [[-0.5369410462839237], [-4.376791599907099]], [[3.0008646214570076], [-3.8593534818067923]]]
[[0.08048420490408283, 0.00978394635739341], [0.007093631808299721, 0.014759595884982893], [0.14881050642616855, 0.0011861226229357938]]
{0: {-2: 'LinearCond([-1.0, 0.0, 0.0, 0.0, 0.0, -3.7734559286571834])', 2: 'LinearCond([-1.0, 0.0, 0.0, 0.0, 0.0, -1.0088691360735824])', 1: 'LinearCond([0.0, 0.0, 0.0, -1.0, 0.0, 0.535640686758721])'}, 1: {2: 'LinearCond([0.0, 0.0, 0.0, 0.0, -1.0, -0.4654713816051004])', -2: 'LinearCond([0.0, 0.0, -1.0, 0.0, 0.0, 7.971602006279777])', 0: 'LinearCond([0.0, 0.0, 0.0, 0.0, -1.0, 0.2544786298113955])'}, 2: {1: 'LinearCond([1.0, 0.0, 0.0, 0.0, 0.0, -0.7318066715269804])', -2: 'LinearCond([0.0, 0.0, -1.0, 0.0, 0.0, 8.097900892455009])', 0: 'LinearCond([0.0, 0.0, 0.0, 0.0, -1.0, 0.23750851334185102])'}, -1: {1: 'LinearCond([0.0, -1.0, 0.0, 0.0, 0.0, 5.109882814044982])', 2: 'LinearCond([0.0, -1.0, 0.0, 0.0, 0.0, 5.109929144295925])', 0: 'LinearCond([1.0, 0.0, 0.0, 0.0, 0.0, -0.8662806057234397])'}}
{0: {-2: '3.668420344409444e-57', 2: '74.34501946672913', 1: '61.94670706109725'}, 1: {2: '5.023908877166445e-58', -2: '9.897029052817587e-12', 0: '19.916592954674883'}, 2: {1: '5.766418589472814e-58', -2: '13.675774322817226', 0: '0.023553678665566815'}, -1: {1: '1.6582121941441338e-74', 2: '2.2811582194826317e-60', 0: '0.0'}}
