[[[1.9422946883071552], [3.4762861345427094]], [[2.8366708256237914], [-3.8622125146387996]], [[-0.49235882338065273], [-4.332463948923487]]]
[[0.5954252069996397, 0.4022916498460341], [1.3744487265935987, 0.3061653079231186], [0.060899089908969375, 0.7084700765448759]]
{-1: {0: 'LinearCond([0.0, 1.0, 0.0, 0.0, 0.0, -5.109999987973574])', 1: 'LinearCond([0.0, -1.0, 0.0, 0.0, 0.0, 5.110000001146927])', 2: 'LinearCond([0.0, 1.0, 0.0, 0.0, 0.0, -5.30999999991472])'}, 2: {0: 'LinearCond([0.0, 0.0, 0.0, 0.0, -1.0, 0.2321654633443872])', 1: 'LinearCond([0.0, -1.0, 0.0, 0.0, 0.0, 5.201221803904674])', -2: 'LinearCond([0.0, 1.0, 0.0, 0.0, 0.0, -10.892776396268129])'}, 0: {2: 'LinearCond([0.0, 0.0, 0.0, -1.0, 0.0, 0.5564177251387264])', -2: 'LinearCond([0.0, 0.0, 0.0, 1.0, 0.0, -5.461093272864492])', 1: 'LinearCond([0.0, 0.0, 1.0, 0.0, 0.0, -10.37986109412192])'}, 1: {0: 'LinearCond([0.0, 0.0, -1.0, 0.0, 0.0, 7.889258539564496])', -2: 'LinearCond([0.0, 0.0, -1.0, 0.0, 0.0, 7.971602006279777])', 2: 'LinearCond([0.0, 0.0, 0.0, -1.0, 0.0, -1.6923924976441853])'}}
{-1: {0: '0.1792627796852599', 1: '0.15245634426603133', 2: '0.026806433615405672'}, 2: {0: '83.1608886130353', 1: '6.9330038095967215', -2: '0.006602106001288706'}, 0: {2: '211.67021770014503', -2: '40.12067215152478', 1: '105.74852911471721'}, 1: {0: '84.72480076460981', -2: '48.27758675785276', 2: '0.0069613912934459905'}}
