[[[3.88015058194282], [-2.7800165277166435]], [[-4.397649256215529], [-3.7022511313035777]]]
[[0.14514463691198748, 0.20778216751319808], [0.6773847097330995, 0.6007959322833184]]
{-1: {1: 'LinearCond([0.0, -1.0, 3.657801470524809])', 0: 'LinearCond([1.0, 0.0, -0.44988314440314026])'}, 1: {0: 'LinearCond([0.0, -1.0, 3.627402946375564])', -2: 'LinearCond([1.0, 0.0, -12.619571583174482])'}, 0: {1: 'LinearCond([0.0, 1.0, -7.597081069384503])', -2: 'LinearCond([1.0, 0.0, -12.68145536496027])'}}
{-1: {1: '1.774468119520558e-22', 0: '0.0'}, 1: {0: '339.4051643314082', -2: '49.292494208143296'}, 0: {1: '144.1276316368108', -2: '170.57070540202074'}}
