[[[-0.6815152058150091]], [[1.1073796172818127]]]
[[0.027085859444851642], [0.1176544600065513]]
{-1: {0: 'LinearCond([0.0, -1.0, 0.0, 0.0, 0.12338634231521138])', 1: 'LinearCond([0.0, 1.0, 0.0, 0.0, -0.12338632793347237])'}, 1: {0: 'LinearCond([0.0, 0.0, 0.0, -1.0, -1.2406298797915174])'}, 0: {1: 'AndCond(LinearCond([0.0, 0.0, 0.0, 1.0, -0.104114751096979]),LinearCond([0.0, 0.0, 1.0, 0.0, -0.538127601772649]))'}}
{-1: {0: '0.014534759167734244', 1: '0.014534758914360525'}, 1: {0: '97.74874909894864'}, 0: {1: '129.66224518789696'}}
