[[[1.507136509654476]], [[-0.8171455423043843]]]
[[0.45355452800196194], [0.21061616843882391]]
{-1: {1: 'AndCond(LinearCond([0.0, 0.0, 1.0, 0.0, 0.2522656339211366]),LinearCond([0.0, 0.0, 0.0, 1.0, 0.19867727624689108]))', 0: 'LinearCond([0.0, 0.0, -1.0, 0.0, -0.004579385434318373])'}, 1: {0: 'LinearCond([0.0, 0.0, 0.0, 1.0, -1.3069394422734233])'}, 0: {1: 'AndCond(LinearCond([0.0, 0.0, 0.0, -1.0, -0.7836095322526846]),LinearCond([0.0, -1.0, 0.0, 0.0, 1.3096834789275957]))'}}
{-1: {1: '0.020264585904390287', 0: '0.027768729816592827'}, 1: {0: '67.13409477218502'}, 0: {1: '82.21322352285'}}
