[[[-1.4030576203763991]], [[1.5211608288135197]]]
[[0.3923922260621592], [0.346467087646496]]
{-1: {1: 'LinearCond([0.0, 0.0, 0.0, 1.0, -0.08793370935865182])', 0: 'LinearCond([0.0, 0.0, 0.0, -1.0, 0.08793372286624948])'}, 1: {0: 'AndCond(LinearCond([0.0, 0.0, 0.0, -1.0, -1.8848632369686102]),LinearCond([-1.0, 0.0, 0.0, 0.0, 5.516176878317575]))'}, 0: {1: 'AndCond(LinearCond([0.0, 0.0, 0.0, 1.0, -1.5789339167903258]),LinearCond([0.0, 0.0, 1.0, 0.0, 1.3088241912869452]))'}}
{-1: {1: '0.049224640846652276', 0: '0.04922464079101091'}, 1: {0: '175.57825170416376'}, 0: {1: '171.7564529344421'}}
