[[[-1.3048255261975519], [-0.6303569072674856]], [[1.5516353741565392], [-0.9620456997215396]]]
[[0.37754863198488137, 2.134187187969304], [0.18820791242594484, 1.5227469028277758]]
{-1: {0: 'LinearCond([0.0, -1.0, 6.452498041316686])', 1: 'LinearCond([0.0, 1.0, -6.452498026693746])'}, 0: {1: 'LinearCond([-1.0, 0.0, 5.702531025727958])'}, 1: {0: 'LinearCond([1.0, 0.0, -11.189510402629864])'}}
{-1: {0: '0.0023649245730736823', 1: '0.002364924499852'}, 0: {1: '332.79480375672654'}, 1: {0: '259.18643673529635'}}
